SPECIES,LONG_WGS84,LAT_WGS84,YEAR,BIO01,BIO02,BIO03,BIO04,BIO05,BIO06,BIO07,BIO08,BIO09,BIO10,BIO11,BIO12,BIO13,BIO14,BIO15,BIO16,BIO17,BIO18,BIO19
Urocitellus beldingi,-115.52944,40.06778,1970,776,1644,40,81038,3031.75,-989.106201,4020.856201,670,1862,1862,-231,32885.67969,3646.287598,1030.78125,30,10729.58789,4662.181152,4662,9141
Urocitellus beldingi,-113.72556,41.84889,1970,661,1483,36,86164,2898.40625,-1119.09375,4017.5,-402,1339,1809,-402,33528.71875,3849.0625,1827.900024,21,10043.2998,6064.84375,7173,10043
Urocitellus beldingi,-113.72556,41.85613,1970,669,1471,36,86620,2908.231201,-1096.237549,4004.46875,-400,1355,1825,-400,32927.54297,3645.318848,1819.806274,20,9742.275391,6061.84375,7166,9742
Urocitellus beldingi,-113.74389,41.87278,1970,664,1549,38,85453,2945.162598,-1123.925049,4069.087646,1001,1328,1804,-390,31704.24414,3845.381348,1727.900024,21,9417.887695,6059.681152,7079,8837
Urocitellus beldingi,-113.74389,41.88727,1970,669,1546,38,85388,2945.699951,-1114.175049,4059.875,1008,1332,1808,-382,31927.33789,3957.537598,1822.787476,21,9537.831055,6162.912598,7180,8832
Urocitellus beldingi,-118.850219,37.600635,1971,638,1632,46,66548,2605.425049,-937.168762,3542.59375,-162,1538,1538,-162,52333.18359,9624.056641,1191.400024,72,27063.44922,3920.375,3920,27063
Urocitellus beldingi,-120.253334,41.56209,1971,579,1387,39,71270,2609.050049,-874.825012,3483.875,-186,1517,1532,-278,74447.60938,9711.130859,905.368774,53,28073.05469,4489.268555,5440,26981
Urocitellus beldingi,-120.241749,41.56987,1971,544,1334,39,70514,2548.981201,-846.212524,3395.193848,-204,1480,1490,-293,77307.21094,10135.59961,910.381226,53,29089.14844,4716.762207,5680,27982
Urocitellus beldingi,-120.298142,41.978764,1971,816,1485,42,71161,2901.506348,-627.59375,3529.100098,19,1749,1767,-43,50444.15625,6805.081055,1152.993774,43,19297.46875,5262.206055,5891,17685
Urocitellus beldingi,-119.05,43.58,1971,760,1534,40,77977,2946.774902,-848.918762,3795.693604,-160,1739,1787,-225,27123.21875,3721.012451,1028.049927,38,10000.5127,3375.462402,3691,9440
Urocitellus beldingi,-121.12354,41.76184,1972,819,1552,42,71978,2963.850098,-674.456238,3638.306396,15,1759,1778,-54,36863.09375,4774.287598,825.862488,41,13028.10645,3568.40625,4230,11928
Urocitellus beldingi,-113.79,42.53,1972,903,1421,37,83037,3078.71875,-722.931274,3801.649902,862,1927,1997,-154,25299.53125,3188.75,835.306274,33,8162.46875,3365.024902,3810,7446
Urocitellus beldingi,-119.5276,45.3329,1973,951,1318,40,66936,2900.537598,-381.03125,3281.568848,861,1817,1845,126,36542.03125,4319.018555,876.256226,37,11952.875,3829.706299,5196,10455
Urocitellus beldingi,-119.5567,45.3533,1973,1010,1321,40,67281,2961.800049,-325.806244,3287.606201,930,1876,1909,179,35729.28906,4264.537598,803.618713,38,11749.16211,3589.90625,4867,10260
Urocitellus beldingi,-118.73,37.45,1973,287,1358,44,60575,1960.768799,-1100.706299,3061.475098,-408,1106,1106,-408,50516.98047,9168.681641,1109.737549,68,24367.21289,3481.962646,3482,24367
Urocitellus beldingi,-119.037669,38.232356,1979,359,1656,47,65301,2326.581299,-1148,3474.581299,-402,935,1233,-402,37211.60547,5501.25,1430.925049,48,15506.75,4769.96875,5129,15507
Urocitellus beldingi,-120.6947,42.2291,1979,751,1502,43,68518,2818.412598,-666.424988,3484.837646,-2,1658,1670,-65,44702.01953,6477.512695,1119.5,47,17615.78711,4223.8125,4646,17038
Urocitellus beldingi,-121.0572,43.4947,1982,640,1807,48,65251,2863.949951,-884.087524,3748.037598,-109,1482,1522,-147,29865.68164,4189.893555,1413.53125,38,11499.15625,4486.762695,4748,10426
Urocitellus beldingi,-119.3694,44.8194,1982,938,1487,42,69751,3046.512451,-463.943726,3510.456055,132,1843,1870,88,40700.91797,5209.131348,1439.400024,37,14476.93164,4780.168945,6388,12728
Urocitellus beldingi,-121.0625,43.3714,1982,684,1853,48,66584,2934.024902,-864.96875,3798.993652,-81,1542,1584,-113,28737.6875,4104.475098,1336,36,10780.7627,4161.087402,4684,9845
Urocitellus beldingi,-111.58405,40.61525,1992,322,1284,37,76479,2276.743652,-1183.262451,3460.006104,-464,1367,1367,-580,103379.6953,13211.53711,3753.381348,38,36830.60156,12079.05078,12079,35400
Urocitellus beldingi,-117.283333,45.426389,1995,632,1547,42,72322,2734.987549,-905.5625,3640.550049,971,1522,1572,-297,36027.14844,4968.65625,1981.943726,30,13134.4375,6984.59375,9246,7409
Urocitellus beldingi,-117.283333,45.433333,1995,642,1551,42,72692,2756.350098,-895.025024,3651.375,983,1539,1589,-289,35703.85547,5061.481445,1877.275024,31,13134.83203,6979.193848,9335,7200
Urocitellus beldingi,-121.346917,40.360667,2002,752,1570,45,65745,2779.587402,-705.356262,3484.943604,-50,1601,1622,-50,99694.17188,17304.125,1108,74,50140.91797,4488.649902,4709,50141
Urocitellus beldingi,-118.7543,41.6785,2007,479,1128,35,71706,2414.393799,-795.9375,3210.331299,291,1432,1446,-354,49053.40625,6446.1875,1000.3125,43,17090.14453,5044.100098,5632,15884
Urocitellus beldingi,-120.4941,44.4129,2007,684,1483,43,67416,2746.649902,-666.231262,3412.881104,-87,1571,1579,-134,44676.73047,6554.856445,1608.693726,41,18081.55078,5717.106445,6295,16340
Urocitellus beldingi,-119.065834,37.794643,2010,579,1681,48,63848,2491.518799,-1005.268799,3496.787598,-189,1430,1430,-189,54699.45703,9933.962891,1057.518799,74,28669.85547,3621.518799,3622,28670
Urocitellus beldingi,-120.098081,38.906268,2010,352,1080,39,59661,1901.056274,-823.2999878,2724.356201,-304,1161,1165,-304,159084.2188,28642.03125,1174.106201,76,78865.78125,5380.212402,6434,78866
Urocitellus beldingi,-120.72571,40.55894,2010,662,1291,40,66941,2573.6875,-643.375,3217.0625,-91,1562,1575,-91,74451,14720.0625,642.8187256,81,42261.27344,3733.912598,3761,42261
Urocitellus beldingi,-122.15363,41.65006,2010,865,1255,39,68038,2751.600098,-421.9750061,3173.575195,108,1769,1769,66,49419.85156,7287.518555,1146.143799,48,19886.76953,4484.743652,4485,18760
Urocitellus beldingi,-118.59486,37.24442,2010,592,1410,44,62552,2349.612549,-818.450012,3168.0625,-122,1444,1444,-122,34935.63672,5845.962402,915.556274,59,15953.5127,3488.049805,3488,15954
Urocitellus beldingi,-119.15025,38.01548,2010,827,1673,45,71579,2884.193848,-791.193726,3675.387695,-80,1756,1756,-80,36491.99219,6375.912598,837.193726,66,17765.94922,3482.162598,3482,17766